%YAML 1.1
%TAG !u! tag:unity3d.com,2011:
--- !u!1001 &3439979596935820378
PrefabInstance:
  m_ObjectHideFlags: 0
  serializedVersion: 2
  m_Modification:
    m_TransformParent: {fileID: 2914334374709788775}
    m_Modifications:
    - target: {fileID: 6612213222025167187, guid: 74158fd07d497ee41a9cb2b2da0d2dd6, type: 3}
      propertyPath: m_Name
      value: Rock (1)
      objectReference: {fileID: 0}
    - target: {fileID: 8043673443946370699, guid: 74158fd07d497ee41a9cb2b2da0d2dd6, type: 3}
      propertyPath: m_RootOrder
      value: 1
      objectReference: {fileID: 0}
    - target: {fileID: 8043673443946370699, guid: 74158fd07d497ee41a9cb2b2da0d2dd6, type: 3}
      propertyPath: m_LocalScale.x
      value: 0.4702119
      objectReference: {fileID: 0}
    - target: {fileID: 8043673443946370699, guid: 74158fd07d497ee41a9cb2b2da0d2dd6, type: 3}
      propertyPath: m_LocalScale.y
      value: 0.42018926
      objectReference: {fileID: 0}
    - target: {fileID: 8043673443946370699, guid: 74158fd07d497ee41a9cb2b2da0d2dd6, type: 3}
      propertyPath: m_LocalPosition.x
      value: 0.08494477
      objectReference: {fileID: 0}
    - target: {fileID: 8043673443946370699, guid: 74158fd07d497ee41a9cb2b2da0d2dd6, type: 3}
      propertyPath: m_LocalPosition.y
      value: -0.0020281745
      objectReference: {fileID: 0}
    - target: {fileID: 8043673443946370699, guid: 74158fd07d497ee41a9cb2b2da0d2dd6, type: 3}
      propertyPath: m_LocalPosition.z
      value: 0
      objectReference: {fileID: 0}
    - target: {fileID: 8043673443946370699, guid: 74158fd07d497ee41a9cb2b2da0d2dd6, type: 3}
      propertyPath: m_LocalRotation.w
      value: 1
      objectReference: {fileID: 0}
    - target: {fileID: 8043673443946370699, guid: 74158fd07d497ee41a9cb2b2da0d2dd6, type: 3}
      propertyPath: m_LocalRotation.x
      value: -0
      objectReference: {fileID: 0}
    - target: {fileID: 8043673443946370699, guid: 74158fd07d497ee41a9cb2b2da0d2dd6, type: 3}
      propertyPath: m_LocalRotation.y
      value: -0
      objectReference: {fileID: 0}
    - target: {fileID: 8043673443946370699, guid: 74158fd07d497ee41a9cb2b2da0d2dd6, type: 3}
      propertyPath: m_LocalRotation.z
      value: -0
      objectReference: {fileID: 0}
    - target: {fileID: 8043673443946370699, guid: 74158fd07d497ee41a9cb2b2da0d2dd6, type: 3}
      propertyPath: m_LocalEulerAnglesHint.x
      value: 0
      objectReference: {fileID: 0}
    - target: {fileID: 8043673443946370699, guid: 74158fd07d497ee41a9cb2b2da0d2dd6, type: 3}
      propertyPath: m_LocalEulerAnglesHint.y
      value: 0
      objectReference: {fileID: 0}
    - target: {fileID: 8043673443946370699, guid: 74158fd07d497ee41a9cb2b2da0d2dd6, type: 3}
      propertyPath: m_LocalEulerAnglesHint.z
      value: 0
      objectReference: {fileID: 0}
    m_RemovedComponents: []
  m_SourcePrefab: {fileID: 100100000, guid: 74158fd07d497ee41a9cb2b2da0d2dd6, type: 3}
--- !u!1001 &5174941417086326508
PrefabInstance:
  m_ObjectHideFlags: 0
  serializedVersion: 2
  m_Modification:
    m_TransformParent: {fileID: 0}
    m_Modifications:
    - target: {fileID: 6612213222025167187, guid: 74158fd07d497ee41a9cb2b2da0d2dd6, type: 3}
      propertyPath: m_Name
      value: Rock
      objectReference: {fileID: 0}
    - target: {fileID: 8043673443946370699, guid: 74158fd07d497ee41a9cb2b2da0d2dd6, type: 3}
      propertyPath: m_RootOrder
      value: 0
      objectReference: {fileID: 0}
    - target: {fileID: 8043673443946370699, guid: 74158fd07d497ee41a9cb2b2da0d2dd6, type: 3}
      propertyPath: m_LocalScale.x
      value: 6.2746654
      objectReference: {fileID: 0}
    - target: {fileID: 8043673443946370699, guid: 74158fd07d497ee41a9cb2b2da0d2dd6, type: 3}
      propertyPath: m_LocalScale.y
      value: 6.902729
      objectReference: {fileID: 0}
    - target: {fileID: 8043673443946370699, guid: 74158fd07d497ee41a9cb2b2da0d2dd6, type: 3}
      propertyPath: m_LocalPosition.x
      value: 1.05
      objectReference: {fileID: 0}
    - target: {fileID: 8043673443946370699, guid: 74158fd07d497ee41a9cb2b2da0d2dd6, type: 3}
      propertyPath: m_LocalPosition.y
      value: -4.497
      objectReference: {fileID: 0}
    - target: {fileID: 8043673443946370699, guid: 74158fd07d497ee41a9cb2b2da0d2dd6, type: 3}
      propertyPath: m_LocalPosition.z
      value: 0
      objectReference: {fileID: 0}
    - target: {fileID: 8043673443946370699, guid: 74158fd07d497ee41a9cb2b2da0d2dd6, type: 3}
      propertyPath: m_LocalRotation.w
      value: 1
      objectReference: {fileID: 0}
    - target: {fileID: 8043673443946370699, guid: 74158fd07d497ee41a9cb2b2da0d2dd6, type: 3}
      propertyPath: m_LocalRotation.x
      value: -0
      objectReference: {fileID: 0}
    - target: {fileID: 8043673443946370699, guid: 74158fd07d497ee41a9cb2b2da0d2dd6, type: 3}
      propertyPath: m_LocalRotation.y
      value: -0
      objectReference: {fileID: 0}
    - target: {fileID: 8043673443946370699, guid: 74158fd07d497ee41a9cb2b2da0d2dd6, type: 3}
      propertyPath: m_LocalRotation.z
      value: -0
      objectReference: {fileID: 0}
    - target: {fileID: 8043673443946370699, guid: 74158fd07d497ee41a9cb2b2da0d2dd6, type: 3}
      propertyPath: m_LocalEulerAnglesHint.x
      value: 0
      objectReference: {fileID: 0}
    - target: {fileID: 8043673443946370699, guid: 74158fd07d497ee41a9cb2b2da0d2dd6, type: 3}
      propertyPath: m_LocalEulerAnglesHint.y
      value: 0
      objectReference: {fileID: 0}
    - target: {fileID: 8043673443946370699, guid: 74158fd07d497ee41a9cb2b2da0d2dd6, type: 3}
      propertyPath: m_LocalEulerAnglesHint.z
      value: 0
      objectReference: {fileID: 0}
    m_RemovedComponents: []
  m_SourcePrefab: {fileID: 100100000, guid: 74158fd07d497ee41a9cb2b2da0d2dd6, type: 3}
--- !u!4 &2914334374709788775 stripped
Transform:
  m_CorrespondingSourceObject: {fileID: 8043673443946370699, guid: 74158fd07d497ee41a9cb2b2da0d2dd6, type: 3}
  m_PrefabInstance: {fileID: 5174941417086326508}
  m_PrefabAsset: {fileID: 0}
--- !u!1001 &6328162209462308230
PrefabInstance:
  m_ObjectHideFlags: 0
  serializedVersion: 2
  m_Modification:
    m_TransformParent: {fileID: 2914334374709788775}
    m_Modifications:
    - target: {fileID: 6612213222025167187, guid: 74158fd07d497ee41a9cb2b2da0d2dd6, type: 3}
      propertyPath: m_Name
      value: Rock (2)
      objectReference: {fileID: 0}
    - target: {fileID: 8043673443946370699, guid: 74158fd07d497ee41a9cb2b2da0d2dd6, type: 3}
      propertyPath: m_RootOrder
      value: 0
      objectReference: {fileID: 0}
    - target: {fileID: 8043673443946370699, guid: 74158fd07d497ee41a9cb2b2da0d2dd6, type: 3}
      propertyPath: m_LocalScale.x
      value: 0.4702119
      objectReference: {fileID: 0}
    - target: {fileID: 8043673443946370699, guid: 74158fd07d497ee41a9cb2b2da0d2dd6, type: 3}
      propertyPath: m_LocalScale.y
      value: 0.42018926
      objectReference: {fileID: 0}
    - target: {fileID: 8043673443946370699, guid: 74158fd07d497ee41a9cb2b2da0d2dd6, type: 3}
      propertyPath: m_LocalPosition.x
      value: -0.083146825
      objectReference: {fileID: 0}
    - target: {fileID: 8043673443946370699, guid: 74158fd07d497ee41a9cb2b2da0d2dd6, type: 3}
      propertyPath: m_LocalPosition.y
      value: -0.00071787427
      objectReference: {fileID: 0}
    - target: {fileID: 8043673443946370699, guid: 74158fd07d497ee41a9cb2b2da0d2dd6, type: 3}
      propertyPath: m_LocalPosition.z
      value: 0
      objectReference: {fileID: 0}
    - target: {fileID: 8043673443946370699, guid: 74158fd07d497ee41a9cb2b2da0d2dd6, type: 3}
      propertyPath: m_LocalRotation.w
      value: 1
      objectReference: {fileID: 0}
    - target: {fileID: 8043673443946370699, guid: 74158fd07d497ee41a9cb2b2da0d2dd6, type: 3}
      propertyPath: m_LocalRotation.x
      value: -0
      objectReference: {fileID: 0}
    - target: {fileID: 8043673443946370699, guid: 74158fd07d497ee41a9cb2b2da0d2dd6, type: 3}
      propertyPath: m_LocalRotation.y
      value: -0
      objectReference: {fileID: 0}
    - target: {fileID: 8043673443946370699, guid: 74158fd07d497ee41a9cb2b2da0d2dd6, type: 3}
      propertyPath: m_LocalRotation.z
      value: -0
      objectReference: {fileID: 0}
    - target: {fileID: 8043673443946370699, guid: 74158fd07d497ee41a9cb2b2da0d2dd6, type: 3}
      propertyPath: m_LocalEulerAnglesHint.x
      value: 0
      objectReference: {fileID: 0}
    - target: {fileID: 8043673443946370699, guid: 74158fd07d497ee41a9cb2b2da0d2dd6, type: 3}
      propertyPath: m_LocalEulerAnglesHint.y
      value: 0
      objectReference: {fileID: 0}
    - target: {fileID: 8043673443946370699, guid: 74158fd07d497ee41a9cb2b2da0d2dd6, type: 3}
      propertyPath: m_LocalEulerAnglesHint.z
      value: 0
      objectReference: {fileID: 0}
    m_RemovedComponents: []
  m_SourcePrefab: {fileID: 100100000, guid: 74158fd07d497ee41a9cb2b2da0d2dd6, type: 3}
