%YAML 1.1
%TAG !u! tag:unity3d.com,2011:
--- !u!74 &7400000
AnimationClip:
  m_ObjectHideFlags: 0
  m_CorrespondingSourceObject: {fileID: 0}
  m_PrefabInstance: {fileID: 0}
  m_PrefabAsset: {fileID: 0}
  m_Name: walk_down_right
  serializedVersion: 6
  m_Legacy: 0
  m_Compressed: 0
  m_UseHighQualityCurve: 1
  m_RotationCurves: []
  m_CompressedRotationCurves: []
  m_EulerCurves: []
  m_PositionCurves: []
  m_ScaleCurves: []
  m_FloatCurves: []
  m_PPtrCurves:
  - curve:
    - time: 0
      value: {fileID: 21300000, guid: f342d7da975dbf741b365748a4a8c4d4, type: 3}
    - time: 0.083333336
      value: {fileID: 21300000, guid: ae537456adae3824c9554a63cf3797d3, type: 3}
    - time: 0.16666667
      value: {fileID: 21300000, guid: 86eabe025a9502f428057fd203dc29ba, type: 3}
    - time: 0.25
      value: {fileID: 21300000, guid: 1176b1fded8e0c4459669b850b4dd7cb, type: 3}
    - time: 0.33333334
      value: {fileID: 21300000, guid: 52e8f33ad0a76be42995f8ae3cedc7dd, type: 3}
    - time: 0.41666666
      value: {fileID: 21300000, guid: 22d48bd7c950ae24ba2aa7b549f8302b, type: 3}
    - time: 0.5
      value: {fileID: 21300000, guid: 6108439a24a0add4794a9d76cd1353f9, type: 3}
    - time: 0.5833333
      value: {fileID: 21300000, guid: 64fa80ce520eed84f97acebcc4791c9e, type: 3}
    - time: 0.6666667
      value: {fileID: 21300000, guid: 800739d42f360f647a6c449ceaf4fbb9, type: 3}
    attribute: m_Sprite
    path: 
    classID: 212
    script: {fileID: 0}
  m_SampleRate: 60
  m_WrapMode: 0
  m_Bounds:
    m_Center: {x: 0, y: 0, z: 0}
    m_Extent: {x: 0, y: 0, z: 0}
  m_ClipBindingConstant:
    genericBindings:
    - serializedVersion: 2
      path: 0
      attribute: 0
      script: {fileID: 0}
      typeID: 212
      customType: 23
      isPPtrCurve: 1
    pptrCurveMapping:
    - {fileID: 21300000, guid: f342d7da975dbf741b365748a4a8c4d4, type: 3}
    - {fileID: 21300000, guid: ae537456adae3824c9554a63cf3797d3, type: 3}
    - {fileID: 21300000, guid: 86eabe025a9502f428057fd203dc29ba, type: 3}
    - {fileID: 21300000, guid: 1176b1fded8e0c4459669b850b4dd7cb, type: 3}
    - {fileID: 21300000, guid: 52e8f33ad0a76be42995f8ae3cedc7dd, type: 3}
    - {fileID: 21300000, guid: 22d48bd7c950ae24ba2aa7b549f8302b, type: 3}
    - {fileID: 21300000, guid: 6108439a24a0add4794a9d76cd1353f9, type: 3}
    - {fileID: 21300000, guid: 64fa80ce520eed84f97acebcc4791c9e, type: 3}
    - {fileID: 21300000, guid: 800739d42f360f647a6c449ceaf4fbb9, type: 3}
  m_AnimationClipSettings:
    serializedVersion: 2
    m_AdditiveReferencePoseClip: {fileID: 0}
    m_AdditiveReferencePoseTime: 0
    m_StartTime: 0
    m_StopTime: 0.68333334
    m_OrientationOffsetY: 0
    m_Level: 0
    m_CycleOffset: 0
    m_HasAdditiveReferencePose: 0
    m_LoopTime: 1
    m_LoopBlend: 0
    m_LoopBlendOrientation: 0
    m_LoopBlendPositionY: 0
    m_LoopBlendPositionXZ: 0
    m_KeepOriginalOrientation: 0
    m_KeepOriginalPositionY: 1
    m_KeepOriginalPositionXZ: 0
    m_HeightFromFeet: 0
    m_Mirror: 0
  m_EditorCurves: []
  m_EulerEditorCurves: []
  m_HasGenericRootTransform: 0
  m_HasMotionFloatCurves: 0
  m_Events: []
