%YAML 1.1
%TAG !u! tag:unity3d.com,2011:
--- !u!74 &7400000
AnimationClip:
  m_ObjectHideFlags: 0
  m_CorrespondingSourceObject: {fileID: 0}
  m_PrefabInstance: {fileID: 0}
  m_PrefabAsset: {fileID: 0}
  m_Name: walk_down_left
  serializedVersion: 6
  m_Legacy: 0
  m_Compressed: 0
  m_UseHighQualityCurve: 1
  m_RotationCurves: []
  m_CompressedRotationCurves: []
  m_EulerCurves: []
  m_PositionCurves: []
  m_ScaleCurves: []
  m_FloatCurves: []
  m_PPtrCurves:
  - curve:
    - time: 0
      value: {fileID: 21300000, guid: e2ab18e052c01b440ba4b669f807929d, type: 3}
    - time: 0.083333336
      value: {fileID: 21300000, guid: 642e578cc3a2a9f4ca3d0a8df6cd458e, type: 3}
    - time: 0.16666667
      value: {fileID: 21300000, guid: 8f287d575c99d9e4cb8b3073eb60aa8d, type: 3}
    - time: 0.25
      value: {fileID: 21300000, guid: 391950a4a2685d8499926e3ef5534be4, type: 3}
    - time: 0.33333334
      value: {fileID: 21300000, guid: e870e14ba6586b24a912eee51a90f3e5, type: 3}
    - time: 0.41666666
      value: {fileID: 21300000, guid: af926c55d5fec3f4f891eb4f26efc455, type: 3}
    - time: 0.5
      value: {fileID: 21300000, guid: 0d33b8fd8fdcbba44aceb771a6355208, type: 3}
    - time: 0.5833333
      value: {fileID: 21300000, guid: 4c327c5421190124eba12b76bd61210c, type: 3}
    - time: 0.6666667
      value: {fileID: 21300000, guid: 64ac96e45e0948940806fb310068273d, type: 3}
    attribute: m_Sprite
    path: 
    classID: 212
    script: {fileID: 0}
  m_SampleRate: 60
  m_WrapMode: 0
  m_Bounds:
    m_Center: {x: 0, y: 0, z: 0}
    m_Extent: {x: 0, y: 0, z: 0}
  m_ClipBindingConstant:
    genericBindings:
    - serializedVersion: 2
      path: 0
      attribute: 0
      script: {fileID: 0}
      typeID: 212
      customType: 23
      isPPtrCurve: 1
    pptrCurveMapping:
    - {fileID: 21300000, guid: e2ab18e052c01b440ba4b669f807929d, type: 3}
    - {fileID: 21300000, guid: 642e578cc3a2a9f4ca3d0a8df6cd458e, type: 3}
    - {fileID: 21300000, guid: 8f287d575c99d9e4cb8b3073eb60aa8d, type: 3}
    - {fileID: 21300000, guid: 391950a4a2685d8499926e3ef5534be4, type: 3}
    - {fileID: 21300000, guid: e870e14ba6586b24a912eee51a90f3e5, type: 3}
    - {fileID: 21300000, guid: af926c55d5fec3f4f891eb4f26efc455, type: 3}
    - {fileID: 21300000, guid: 0d33b8fd8fdcbba44aceb771a6355208, type: 3}
    - {fileID: 21300000, guid: 4c327c5421190124eba12b76bd61210c, type: 3}
    - {fileID: 21300000, guid: 64ac96e45e0948940806fb310068273d, type: 3}
  m_AnimationClipSettings:
    serializedVersion: 2
    m_AdditiveReferencePoseClip: {fileID: 0}
    m_AdditiveReferencePoseTime: 0
    m_StartTime: 0
    m_StopTime: 0.68333334
    m_OrientationOffsetY: 0
    m_Level: 0
    m_CycleOffset: 0
    m_HasAdditiveReferencePose: 0
    m_LoopTime: 1
    m_LoopBlend: 0
    m_LoopBlendOrientation: 0
    m_LoopBlendPositionY: 0
    m_LoopBlendPositionXZ: 0
    m_KeepOriginalOrientation: 0
    m_KeepOriginalPositionY: 1
    m_KeepOriginalPositionXZ: 0
    m_HeightFromFeet: 0
    m_Mirror: 0
  m_EditorCurves: []
  m_EulerEditorCurves: []
  m_HasGenericRootTransform: 0
  m_HasMotionFloatCurves: 0
  m_Events: []
