%YAML 1.1
%TAG !u! tag:unity3d.com,2011:
--- !u!1045 &1
EditorBuildSettings:
  m_ObjectHideFlags: 0
  serializedVersion: 2
  m_Scenes:
  - enabled: 1
    path: Assets/Scenes/Inicio.unity
    guid: bfd6ba3695f9d7840b65fd50ab83db2d
  - enabled: 1
    path: Assets/Scenes/Loading.unity
    guid: 1c52df42d39cacf47a5ed1b54c3d1399
  - enabled: 1
    path: Assets/Scenes/Menu.unity
    guid: 5b9e5a77a0fed264f9be198c2935bef9
  - enabled: 1
    path: Assets/Scenes/Templar.unity
    guid: ebcfbf2889bb842419bf5dca1f134a07
  - enabled: 1
    path: Assets/Scenes/HordeMode.unity
    guid: 1470eabb25968d44fb108936d53f6d15
  - enabled: 1
    path: Assets/Scenes/Raid.unity
    guid: 43b57bec44d28364db92e0ac5da24d2b
  m_configObjects: {}
